%YAML 1.1
%TAG !u! tag:unity3d.com,2011:
--- !u!1001 &3824421424781528034
PrefabInstance:
  m_ObjectHideFlags: 0
  serializedVersion: 2
  m_Modification:
    m_TransformParent: {fileID: 0}
    m_Modifications:
    - target: {fileID: 6267087846451100581, guid: e439d3751be44734482654dea48aea65, type: 3}
      propertyPath: PrefabHash
      value: 15515321703173001104
      objectReference: {fileID: 0}
    - target: {fileID: 6267087846451100581, guid: e439d3751be44734482654dea48aea65, type: 3}
      propertyPath: PrefabHashGenerator
      value: Blue Ball
      objectReference: {fileID: 0}
    - target: {fileID: 8262475287836850313, guid: e439d3751be44734482654dea48aea65, type: 3}
      propertyPath: m_Materials.Array.data[0]
      value: 
      objectReference: {fileID: 2100000, guid: 69a1705f8f6ee934bbaf7ebdd5e21058, type: 2}
    - target: {fileID: 8262475287836850315, guid: e439d3751be44734482654dea48aea65, type: 3}
      propertyPath: m_Name
      value: Blue Ball
      objectReference: {fileID: 0}
    - target: {fileID: 8262475287836850327, guid: e439d3751be44734482654dea48aea65, type: 3}
      propertyPath: m_RootOrder
      value: 0
      objectReference: {fileID: 0}
    - target: {fileID: 8262475287836850327, guid: e439d3751be44734482654dea48aea65, type: 3}
      propertyPath: m_LocalPosition.x
      value: 0
      objectReference: {fileID: 0}
    - target: {fileID: 8262475287836850327, guid: e439d3751be44734482654dea48aea65, type: 3}
      propertyPath: m_LocalPosition.y
      value: 0
      objectReference: {fileID: 0}
    - target: {fileID: 8262475287836850327, guid: e439d3751be44734482654dea48aea65, type: 3}
      propertyPath: m_LocalPosition.z
      value: 0
      objectReference: {fileID: 0}
    - target: {fileID: 8262475287836850327, guid: e439d3751be44734482654dea48aea65, type: 3}
      propertyPath: m_LocalRotation.w
      value: 1
      objectReference: {fileID: 0}
    - target: {fileID: 8262475287836850327, guid: e439d3751be44734482654dea48aea65, type: 3}
      propertyPath: m_LocalRotation.x
      value: -0
      objectReference: {fileID: 0}
    - target: {fileID: 8262475287836850327, guid: e439d3751be44734482654dea48aea65, type: 3}
      propertyPath: m_LocalRotation.y
      value: -0
      objectReference: {fileID: 0}
    - target: {fileID: 8262475287836850327, guid: e439d3751be44734482654dea48aea65, type: 3}
      propertyPath: m_LocalRotation.z
      value: -0
      objectReference: {fileID: 0}
    - target: {fileID: 8262475287836850327, guid: e439d3751be44734482654dea48aea65, type: 3}
      propertyPath: m_LocalEulerAnglesHint.x
      value: 0
      objectReference: {fileID: 0}
    - target: {fileID: 8262475287836850327, guid: e439d3751be44734482654dea48aea65, type: 3}
      propertyPath: m_LocalEulerAnglesHint.y
      value: 0
      objectReference: {fileID: 0}
    - target: {fileID: 8262475287836850327, guid: e439d3751be44734482654dea48aea65, type: 3}
      propertyPath: m_LocalEulerAnglesHint.z
      value: 0
      objectReference: {fileID: 0}
    m_RemovedComponents: []
  m_SourcePrefab: {fileID: 100100000, guid: e439d3751be44734482654dea48aea65, type: 3}
